objid	container	server_template_crc	cell_index	px	py	pz	qw	qx	qy	qz	scripts	objvars
i	i	h	i	f	f	f	f	f	f	f	s	p
2055840	0	object/tangible/sign/all_sign_city_s01.iff	0	1038.28	280	889.911	1	0	0	0		$|
2055846	0	object/tangible/sign/all_sign_city_s01.iff	0	1121.29	301.64	1004.56	1	0	0	0		$|
2055847	0	object/tangible/sign/all_sign_city_s01.iff	0	1112.76	299.937	1165.35	1	0	0	0		$|
2055848	0	object/tangible/sign/all_sign_city_s01.iff	0	1127.67	299.953	1211.38	1	0	0	0		$|
2055849	0	object/tangible/sign/all_sign_city_s01.iff	0	1230.66	300	1357.54	0.92388	0	-0.382683	0		$|
2055850	0	object/tangible/sign/all_sign_city_s01.iff	0	1260.44	308	1387.29	0.990901	0	0.13459	0		$|
2055851	0	object/tangible/sign/all_sign_city_s01.iff	0	1285.17	308	1436.63	1	0	0	0		$|
2055852	0	object/tangible/sign/all_sign_city_s01.iff	0	1284.98	324	1593.38	1	0	0	0		$|
3055747	0	object/building/corellia/shuttleport_corellia.iff	0	1017.5	280	897.01	-7.41481e-008	0	1	0	structure.municipal.starport:planet_map.map_loc	travel.cost|0|200|travel.ground_time|0|300|travel.is_shuttleport|0|1|travel.point_name|4|Doaba Guerfel Shuttleport A|travel.shuttle_available|0|1|travel.version|0|3|$|
3055759	0	object/building/corellia/skyscraper_corellia_style_03.iff	0	1139.73	290	853.417	1	0	0	0		$|
3055763	0	object/building/corellia/guild_commerce_corellia_style_01.iff	0	1111.91	290	933.172	-1.16295e-007	0	1	0		$|
3075352	0	object/building/corellia/guild_combat_corellia_style_01.iff	0	1152.15	300	1149.64	-0.58323	0	0.812307	0		$|
3075362	0	object/building/corellia/hotel_corellia.iff	0	1030.42	300	1108.85	0.707109	0	0.707105	0		$|
10019575	3075362	object/cell/cell.iff	1	0	0	0	1	0	0	0		$|
10019576	3075362	object/cell/cell.iff	2	0	0	0	1	0	0	0		$|
10019577	3075362	object/cell/cell.iff	3	0	0	0	1	0	0	0		$|
10019578	3075362	object/cell/cell.iff	4	0	0	0	1	0	0	0		$|
1414935	10019578	object/tangible/space/content_infrastructure/ground_npc_spawner.iff	4	.950448870658875	.999995172023773	2.37850046157837	1	0	0	0	conversation.rebel_master_trainer	$|
1414936	10019578	object/tangible/space/content_infrastructure/ground_npc_spawner.iff	4	1.99067795276642	.999997079372406	2.05679941177368	1	0	0	0	conversation.rebel_master_trooper	$|
3075373	0	object/building/corellia/skyscraper_corellia_style_04.iff	0	1097.02	300	1276.97	0.707108	0	0.707106	0		$|
3075377	0	object/building/corellia/skyscraper_corellia_style_05.iff	0	1171.19	300	1355.74	9.52217e-008	0	1	0		$|
3075405	0	object/building/corellia/guild_university_corellia_style_01.iff	0	1066.04	300	1188.93	0.215983	0	0.976397	0		$|
3075426	0	object/building/corellia/cantina_corellia.iff	0	1196.71	300	1231.27	0.382685	0	0.923879	0		$|
3075456	0	object/building/corellia/filler_block_corellia_32x16_s01.iff	0	1146.07	300.023	1039.45	0.707109	0	0.707105	0		$|
3075459	0	object/building/corellia/filler_block_corellia_64x32_s01.iff	0	1178.72	290	903.11	0.707109	0	0.707105	0		$|
3075474	0	object/building/corellia/skyscraper_corellia_style_02.iff	0	1033.92	300	1054.4	0.707106	0	0.707108	0		$|
3075478	0	object/building/corellia/filler_historic_32x16_s02.iff	0	1069.17	300	1084.69	0.707109	0	0.707105	0		$|
3075483	0	object/building/corellia/filler_historic_32x16_s01.iff	0	1111.07	300	1085.52	0.707109	0	-0.707104	0		$|
3075494	0	object/building/corellia/filler_building_corellia_style_07.iff	0	1158.65	300	1092.07	0.92388	0	-0.382683	0		$|
3075520	0	object/building/corellia/filler_block_corellia_64x32_s02.iff	0	1082.83	300	1020.71	-3.20013e-008	0	1	0		$|
3075526	0	object/building/corellia/bank_corellia.iff	0	1161.58	299.656	1290.65	0.92388	0	0.382683	0		$|
3075565	0	object/building/corellia/filler_building_corellia_style_05.iff	0	1121.12	300	1329.21	0.92388	0	-0.382683	0		$|
3075609	0	object/building/corellia/association_hall_civilian_corellia.iff	0	1271.18	300	1268.39	0.92388	0	-0.382683	0		$|
3075633	0	object/building/corellia/filler_historic_32x16_s02.iff	0	1113.82	300	1237.61	0.382683	0	0.92388	0		$|
3075671	0	object/static/structure/corellia/corl_imprv_column_s01.iff	0	1129	295	976	1	0	0	0		$|
3075672	0	object/static/structure/corellia/corl_imprv_column_s01.iff	0	1133	294.995	972	1	0	0	0		$|
3075674	0	object/static/structure/corellia/corl_imprv_column_s01.iff	0	1139	294.934	972	1	0	0	0		$|
3075675	0	object/static/structure/corellia/corl_imprv_column_s01.iff	0	1139	294.992	984	1	0	0	0		$|
3075676	0	object/static/structure/corellia/corl_imprv_column_s01.iff	0	1129	294.957	980	1	0	0	0		$|
3075720	0	object/static/structure/corellia/corl_imprv_column_s01.iff	0	1133	295	984	1	0	0	0		$|
3075721	0	object/static/structure/corellia/corl_fountain_statue_contemplate_s01.iff	0	1136	294.999	978	0.707108	0	0.707105	0		$|
3075740	0	object/static/structure/corellia/corl_imprv_arch_lg_s01.iff	0	1128	302.064	1006	1	0	0	0		$|
3075741	0	object/static/structure/corellia/corl_imprv_arch_lg_s01.iff	0	1128.08	300	1030.79	1	0	0	0		$|
3075742	0	object/static/structure/corellia/corl_imprv_arch_lg_s01.iff	0	1135.95	292.085	949.927	1	0	0	0		$|
3075743	0	object/static/structure/corellia/corl_imprv_arch_lg_s01.iff	0	1135.84	290	901.487	1	0	0	0		$|
3075744	0	object/static/structure/corellia/corl_imprv_arch_lg_s01.iff	0	1052.76	280.891	901.021	0.707111	0	0.707103	0		$|
3075745	0	object/static/structure/corellia/corl_imprv_arch_lg_s01.iff	0	1095.18	290	884.235	0.707108	0	0.707105	0		$|
3075746	0	object/static/structure/corellia/corl_fountain_circle_s01.iff	0	1041	280	908	1	0	0	0		$|
3075747	0	object/static/structure/general/bench_generic_style_1.iff	0	1041	280	900	1	0	0	0		$|
3075748	0	object/static/structure/general/bench_generic_style_1.iff	0	1041	280	894	-3.20013e-008	0	1	0		$|
3075749	0	object/static/structure/general/bench_generic_style_1.iff	0	1044	280	897	0.707106	0	0.707107	0		$|
3075750	0	object/static/structure/general/bench_generic_style_1.iff	0	1038	280	897	-0.707106	0	0.707107	0		$|
3075754	0	object/static/flora/potted_plant_leaves_ivy.iff	0	1040	280	897	0.45108	0	0.892484	0		$|
3075755	0	object/static/flora/potted_plant_leaves_ivy.iff	0	1042	280	897	0.502998	0	0.864287	0		$|
3075758	0	object/static/flora/potted_plant_flowers_purple.iff	0	1041	280	898	0.82148	0	-0.570238	0		$|
3075759	0	object/static/flora/potted_plant_flowers_purple.iff	0	1041	280	896	0.879767	0	0.475404	0		$|
3075760	0	object/static/structure/corellia/corl_fountain_rectangle_s01.iff	0	1112	290	893	0.707109	0	0.707104	0		$|
3075797	0	object/static/structure/corellia/corl_imprv_column_s01.iff	0	1102	290	890	1	0	0	0		$|
3075798	0	object/static/structure/corellia/corl_imprv_column_s01.iff	0	1122	290	890	1	0	0	0		$|
3075815	0	object/static/structure/corellia/corl_imprv_column_s01.iff	0	1102	290	896	1	0	0	0		$|
3075816	0	object/static/structure/corellia/corl_imprv_column_s01.iff	0	1121.3	290	897.354	1	0	0	0		$|
3075822	0	object/static/structure/corellia/corl_imprv_column_s01.iff	0	1139	290	889	0.707109	0	0.707105	0		$|
3075823	0	object/static/structure/corellia/corl_imprv_column_s01.iff	0	1139	290	879	0.707109	0	0.707105	0		$|
3075825	0	object/static/structure/corellia/corl_imprv_column_s01.iff	0	1153	290	889	0.707108	0	0.707106	0		$|
3075826	0	object/static/structure/corellia/corl_imprv_column_s01.iff	0	1153	290	879	0.707108	0	0.707106	0		$|
3075828	0	object/static/structure/general/bench_generic_style_1.iff	0	1150	290	884	0.707108	0	-0.707105	0		$|
3075829	0	object/static/structure/general/bench_generic_style_1.iff	0	1147	290	887	-5.30747e-008	0	1	0		$|
3075830	0	object/static/structure/general/bench_generic_style_1.iff	0	1144	290	884	0.707107	0	0.707107	0		$|
3075831	0	object/static/structure/general/bench_generic_style_1.iff	0	1147	290	881	1	0	0	0		$|
3075832	0	object/static/structure/corellia/corl_imprv_column_s01.iff	0	1143	295.021	980	1	0	0	0		$|
3075833	0	object/static/structure/corellia/corl_imprv_column_s01.iff	0	1143	295	975	1	0	0	0		$|
3075861	0	object/static/structure/corellia/corl_imprv_arch_lg_s01.iff	0	1089.95	300	1076.15	1	0	0	0		$|
3075863	0	object/static/structure/corellia/corl_imprv_arch_lg_s01.iff	0	1089.68	300	1094.56	1	0	0	0		$|
3375570	0	object/static/structure/corellia/corl_imprv_wall_4x16_s02.iff	0	1121.96	300	1052.52	0.707108	0	0.707105	0		$|
3375571	0	object/static/structure/corellia/corl_imprv_column_s02.iff	0	1121.96	300	1060.52	4.10541e-007	0	1	0		$|
3375572	0	object/static/structure/corellia/corl_imprv_column_s02.iff	0	1077.96	300	1060.52	6.63422e-007	0	1	0		$|
3375573	0	object/static/structure/corellia/corl_imprv_wall_4x16_s02.iff	0	1113.96	300	1060.52	1	0	0	0		$|
3375574	0	object/static/structure/corellia/corl_imprv_arch_sm_s02.iff	0	1116.96	300	1044.52	1	0	0	0		$|
3375575	0	object/static/structure/corellia/corl_imprv_wall_4x16_s02.iff	0	1077.96	300	1052.52	0.707108	0	0.707106	0		$|
3375576	0	object/static/structure/corellia/corl_imprv_column_s02.iff	0	1077.96	300	1044.52	2.41953e-007	0	1	0		$|
3375577	0	object/static/structure/corellia/corl_imprv_wall_4x16_s02.iff	0	1085.96	300	1060.52	1	0	0	0		$|
3375578	0	object/static/structure/corellia/corl_imprv_arch_lg_s02.iff	0	1099.96	300	1060.52	1	0	0	0		$|
3375579	0	object/static/structure/corellia/corl_imprv_arch_sm_s02.iff	0	1082.96	300	1044.52	1	0	0	0		$|
3375580	0	object/static/structure/corellia/corl_imprv_column_s02.iff	0	1121.96	300	1044.52	2.41953e-007	0	1	0		$|
3375582	0	object/static/structure/corellia/corl_imprv_wall_4x16_s02.iff	0	1105.96	300	1044.52	1	0	0	0		$|
3375583	0	object/static/structure/corellia/corl_imprv_wall_4x16_s02.iff	0	1093.96	300	1044.52	1	0	0	0		$|
3375584	0	object/static/structure/corellia/corl_imprv_column_s02.iff	0	1099.96	300	1044.52	1	0	0	0		$|
3555629	0	object/static/structure/corellia/corl_tent_small.iff	0	1110.01	300.132	1257.25	0.892608	0	-0.450834	0		$|
3555630	0	object/tangible/furniture/modern/sofa_chair_modern_style_01.iff	0	1109.08	300	1256.06	0.663731	0	0.747971	0		$|
3555631	0	object/tangible/furniture/modern/sofa_chair_modern_style_01.iff	0	1110.82	300	1258.33	0.233617	0	0.972328	0		$|
4026616	0	object/static/structure/corellia/corl_tent_small.iff	0	1289.04	308.412	1406.76	0.961298	0.0211385	0.263667	0.0770683		$|
4026619	0	object/static/creature/droids_protocol_droid_gold.iff	0	1289.46	308	1414.75	-0.243329	0	0.969944	0		$|
4026620	0	object/static/creature/droids_eg6.iff	0	1286.88	308	1405.42	1	0	0	0		$|
4026621	0	object/static/creature/droids_r2.iff	0	1288.93	308	1409.04	-0.440178	0	0.897911	0		$|
4026623	0	object/static/structure/general/data_terminal_s2.iff	0	1289.28	308	1406.48	0.851111	0	-0.524986	0		$|
4026628	0	object/static/item/item_music_red_ball_jet_organ.iff	0	1255.14	308	1425.84	0.109778	0	0.993956	0		$|
4026629	0	object/static/item/item_speaker.iff	0	1253.17	308	1422.89	-3.20013e-008	0	1	0		$|
4026630	0	object/static/item/item_speaker.iff	0	1263.49	308	1426.09	0.382683	0	0.92388	0		$|
4026631	0	object/static/item/item_music_microphone_s1.iff	0	1258.45	308	1424.17	0.140332	0	0.990105	0		$|
4026637	0	object/static/creature/corellia_bageraset.iff	0	1117.48	300	1095.18	1	0	0	0		$|
4026639	0	object/static/creature/corellia_murra.iff	0	1111.71	300	1094.84	1	0	0	0		$|
4026640	0	object/static/item/item_cage_bamboo.iff	0	1112.6	300	1093.68	0.995953	0	-0.0898786	0		$|
4026641	0	object/static/creature/corellia_durni.iff	0	1112.43	300.095	1093.61	0.767799	0	0.640691	0		$|
4026644	0	object/static/item/item_speaker.iff	0	1312.49	308	1427.15	-3.20013e-008	0	1	0		$|
4026645	0	object/static/item/item_speaker.iff	0	1319.09	308	1427.27	-3.20013e-008	0	1	0		$|
4026646	0	object/static/item/item_music_red_ball_jet_organ.iff	0	1315.27	308	1428.43	-3.20013e-008	0	1	0		$|
4026648	0	object/static/structure/tatooine/debris_tatt_drum_dented_1.iff	0	1355	308	1579.83	1	0	0	0		$|
4026649	0	object/static/structure/tatooine/debris_tatt_drum_storage_2.iff	0	1353.94	308	1580	0.953847	0	-0.300293	0		$|
4026650	0	object/static/structure/tatooine/debris_tatt_crate_metal_1.iff	0	1352.91	308	1580.66	1	0	0	0		$|
4026651	0	object/static/structure/tatooine/debris_tatt_crate_metal_1.iff	0	1352.91	308.316	1580.63	0.961055	0	0.276356	0		$|
4026652	0	object/static/structure/general/prp_junk_s8.iff	0	1352.15	308.462	1582.13	-0.2049	-0.618592	0.68468	0.326456		$|
4026653	0	object/static/structure/corellia/corl_tent_small.iff	0	1354.33	308.138	1582.42	0.840441	0	-0.541902	0		$|
4026654	0	object/tangible/terminal/terminal_mission_bounty.iff	0	1116.02	300	1244.03	0.92388	0	0.382683	0		$|
4026656	0	object/tangible/terminal/terminal_mission_bounty.iff	0	1117.59	300	1242.47	0.92388	0	0.382683	0		$|
4255517	0	object/static/structure/corellia/corl_imprv_column_s03.iff	0	1146.94	286.138	884.007	1	0	0	0		$|
4255523	0	object/static/structure/general/streetlamp_large_green_style_01.iff	0	1146.97	290.158	884.024	0.707107	0	-0.707106	0		$|
4255534	0	object/static/structure/corellia/corl_fountain_brazier_round_s01.iff	0	1091.96	300	1052.52	1	0	0	0		$|
4255536	0	object/static/structure/corellia/corl_fountain_brazier_round_s01.iff	0	1107.96	300	1052.52	1	0	0	0		$|
4255550	0	object/static/structure/corellia/corl_stair_large_s01.iff	0	1232.53	300	1367.21	-0.382683	0	0.92388	0		$|
4255552	0	object/static/structure/corellia/corl_stair_medium_s01.iff	0	1253.75	308	1388.42	0.92388	0	0.382683	0		$|
4255553	0	object/static/structure/corellia/corl_imprv_bridge_sm_s01.iff	0	1244.55	315.746	1379.23	0.92388	0	0.382681	0		$|
4255554	0	object/static/structure/corellia/corl_imprv_bridge_insert_s01.iff	0	1238.9	315.746	1373.57	0.92388	0	0.382682	0		$|
4255555	0	object/static/structure/corellia/corl_imprv_bridge_insert_s01.iff	0	1250.21	315.746	1384.88	0.923883	0	0.382676	0		$|
4255598	0	object/static/structure/corellia/corl_stair_medium_s01.iff	0	1261.33	308	1380.73	0.92388	0	0.382681	0		$|
4255599	0	object/static/structure/corellia/corl_imprv_bridge_sm_s01.iff	0	1252.13	315.746	1371.54	0.923882	0	0.382677	0		$|
4255600	0	object/static/structure/corellia/corl_imprv_bridge_insert_s01.iff	0	1246.48	315.746	1365.88	0.923879	0	0.382684	0		$|
4255601	0	object/static/structure/corellia/corl_imprv_bridge_insert_s01.iff	0	1257.61	315.746	1376.8	0.923884	0	0.382672	0		$|
4255606	0	object/static/structure/corellia/corl_stair_large_s01.iff	0	1240.11	300	1359.52	-0.382683	0	0.92388	0		$|
4345352	0	object/building/corellia/hospital_corellia_s02.iff	0	1227.44	300	1313.71	0.92388	0	-0.382683	0		$|
4345356	0	object/static/structure/corellia/corl_stair_large_s01.iff	0	1289.89	308	1581.26	-3.20013e-008	0	1	0		$|
4345390	0	object/building/corellia/cloning_corellia.iff	0	1264.99	324	1642.87	0.382683	0	0.92388	0		$|
4345397	0	object/building/corellia/filler_slum_16x16_s01.iff	0	1234.85	324	1660.86	-0.042686	0	0.999089	0		$|
4345399	0	object/static/structure/corellia/corl_power_connector.iff	0	1257.99	324	1670.33	-0.382683	0	0.92388	0		$|
4345400	0	object/static/structure/corellia/corl_power_bubble_node.iff	0	1255.53	324	1672.68	0.92388	0	0.382683	0		$|
4345403	0	object/static/structure/general/debris_deathstar_large_tube.iff	0	1255.93	324	1665.2	1	0	0	0		$|
4395352	0	object/tangible/furniture/all/frn_all_toolchest_med_s01.iff	0	1257.56	324	1667.66	0.707107	0	-0.707106	0		$|
4395353	0	object/static/structure/corellia/corl_imprv_column_s02.iff	0	1277	324	1621	-0.382683	0	0.92388	0		$|
4395354	0	object/static/structure/corellia/corl_imprv_column_s02.iff	0	1287	324	1631	-0.382683	0	0.92388	0		$|
4395355	0	object/static/structure/corellia/corl_imprv_column_s02.iff	0	1280	324	1618	-0.382683	0	0.92388	0		$|
4395356	0	object/static/structure/corellia/corl_imprv_column_s02.iff	0	1290	324	1628	-0.382683	0	0.92388	0		$|
4395357	0	object/static/structure/corellia/corl_imprv_arch_lg_s02.iff	0	1288	324	1620	0.92388	0	-0.382683	0		$|
4395358	0	object/building/corellia/filler_slum_16x32_s01.iff	0	1359.39	308	1599.23	0.815212	0	-0.579162	0		$|
4395362	0	object/building/corellia/filler_slum_16x32_s02.iff	0	1392.16	308	1585.82	0.866475	0	-0.49922	0		$|
4395366	0	object/static/structure/corellia/corl_imprv_wall_4x16_s03.iff	0	1367.86	306.5	1565.76	0.516108	0	0.856523	0		$|
4395367	0	object/static/structure/corellia/corl_imprv_wall_4x16_s03.iff	0	1355.05	306.5	1577.83	0.516108	0	0.856523	0		$|
4395368	0	object/static/structure/corellia/corl_imprv_column_s03.iff	0	1373.77	307	1576.89	0.510183	0	0.860066	0		$|
4395370	0	object/static/structure/corellia/corl_imprv_column_s03.iff	0	1359.08	307	1584.58	0.510184	0	0.860066	0		$|
4395371	0	object/static/structure/corellia/corl_imprv_wall_4x16_s03.iff	0	1366.26	306.5	1580.74	-0.240709	0	0.970597	0		$|
4395372	0	object/static/structure/corellia/corl_imprv_column_s03.iff	0	1371.73	307	1572.88	0.510184	0	0.860066	0		$|
4395373	0	object/tangible/terminal/terminal_bazaar.iff	0	1365.6	308	1574.17	0.971883	0	0.235464	0		$|
4395374	0	object/tangible/terminal/terminal_bazaar.iff	0	1361.53	308	1576.28	0.971883	0	0.235464	0		$|
4395375	0	object/static/structure/general/streetlamp_medium_red_style_01.iff	0	1363.88	308	1575.65	-0.240324	0	0.970693	0		$|
4395376	0	object/static/structure/tatooine/debris_tatt_drum_storage_1.iff	0	1369.43	308	1574.89	0.968912	0	-0.247404	0		$|
4395377	0	object/static/structure/tatooine/debris_tatt_drum_dented_1.iff	0	1368.71	308	1573.99	-0.684109	0	0.72938	0		$|
4395378	0	object/static/structure/general/prp_junk_s5.iff	0	1359.76	308	1580.2	0.454262	0	0.890868	0		$|
4395379	0	object/static/structure/general/prp_junk_s8.iff	0	1362.67	308.348	1580.58	0.717716	0.0015324	-0.00553798	-0.696312		$|
4395384	0	object/static/structure/general/prp_engine.iff	0	1361.01	308.537	1579.59	0.710914	-0.703279	0	0		$|
4395395	0	object/building/corellia/guild_theater_corellia_s01.iff	0	1359.21	308	1369.08	0.510183	0	0.860066	0		$|
4395406	0	object/static/structure/corellia/corl_fountain_circle_s01.iff	0	1343.28	308.637	1404.97	0.92388	0	0.382683	0		$|
4395407	0	object/static/structure/corellia/corl_fountain_circle_s01.iff	0	1320.68	308.668	1363.19	0.92388	0	-0.382683	0		$|
4395450	0	object/building/corellia/filler_historic_32x16_s02.iff	0	1295.7	308	1405.61	0.968241	0	0.250018	0		$|
4395455	0	object/building/corellia/filler_historic_32x16_s01.iff	0	1291.34	308	1375.18	0.861439	0	-0.50786	0		$|
4395461	0	object/static/structure/corellia/corl_imprv_arch_sm_s01.iff	0	1303.34	308	1423.3	0.514477	0	0.857504	0		$|
4395462	0	object/static/structure/corellia/corl_imprv_arch_sm_s01.iff	0	1300.34	308	1424.97	0.514477	0	0.857504	0		$|
4395463	0	object/static/structure/corellia/corl_imprv_bridge_insert_s01.iff	0	1319.86	322	1389.37	0.968912	0	0.247404	0		$|
4395465	0	object/static/structure/corellia/corl_imprv_bridge_insert_s01.iff	0	1321.78	322	1392.88	0.968912	0	0.247404	0		$|
4395470	0	object/static/structure/corellia/corl_fountain_brazier_square_s01.iff	0	1320.82	322.5	1391.13	0.968912	0	0.247404	0		$|
4395477	0	object/static/structure/corellia/corl_imprv_bridge_insert_s01.iff	0	1320.82	322	1391.13	0.968912	0	0.247404	0		$|
4395478	0	object/static/structure/corellia/corl_imprv_arch_sm_s01.iff	0	1287.73	308	1389.45	0.514477	0	0.857504	0		$|
4395479	0	object/static/structure/corellia/corl_imprv_arch_sm_s01.iff	0	1284.73	308	1391.13	0.514477	0	0.857504	0		$|
4395488	0	object/building/corellia/skyscraper_corellia_style_02.iff	0	1246.3	308	1444.63	0.512161	0	0.858889	0		$|
4395508	0	object/static/structure/corellia/corl_imprv_wall_4x16_s01.iff	0	1285.75	308	1417.86	0.970137	0	0.242556	0		$|
4395511	0	object/static/structure/corellia/corl_imprv_wall_4x16_s01.iff	0	1285.75	313	1417.86	0.970137	0	0.242556	0		$|
4395512	0	object/static/structure/corellia/corl_imprv_wall_4x16_s01.iff	0	1262.81	313	1430.09	0.970137	0	0.242556	0		$|
4395513	0	object/static/structure/corellia/corl_imprv_wall_4x16_s01.iff	0	1262.81	308	1430.09	0.970137	0	0.242556	0		$|
4395514	0	object/static/structure/corellia/corl_imprv_arch_lg_s01.iff	0	1274.28	312.28	1423.98	0.970137	0	0.242556	0		$|
4395515	0	object/static/structure/corellia/corl_imprv_arch_lg_s01.iff	0	1274.28	310.41	1423.98	-4.31847e-008	0.970137	-1.35117e-008	-0.242556		$|
4395535	0	object/static/structure/corellia/corl_imprv_column_s01.iff	0	1249	308	1396	0.92388	0	0.382683	0		$|
4395536	0	object/static/structure/corellia/corl_imprv_column_s01.iff	0	1246	308	1400	0.92388	0	0.382683	0		$|
4395537	0	object/static/structure/corellia/corl_imprv_column_s01.iff	0	1242	308	1405	0.707107	0	0.707106	0		$|
4395538	0	object/static/structure/corellia/corl_imprv_column_s01.iff	0	1242	308	1411	0.707114	0	0.707099	0		$|
4395539	0	object/static/structure/corellia/corl_imprv_column_s01.iff	0	1245	308	1416	0.382685	0	0.923879	0		$|
4395540	0	object/static/structure/corellia/corl_imprv_column_s01.iff	0	1248	308	1420	0.382685	0	0.923879	0		$|
4395541	0	object/static/structure/corellia/corl_fountain_statue_heroic_s01.iff	0	1249	308	1408	1	0	0	0		$|
4395542	0	object/static/structure/corellia/corl_power_arial_prime.iff	0	1295.17	307.699	1410.83	0.863968	9.44131e-009	-0.503546	-6.69304e-009		$|
4395544	0	object/static/structure/corellia/corl_imprv_arch_sm_s01.iff	0	1081.67	300	1123.78	0.707107	0	0.707106	0		$|
4395545	0	object/static/structure/corellia/corl_imprv_arch_sm_s01.iff	0	1091.67	300	1113.78	1	0	0	0		$|
4395546	0	object/static/structure/corellia/corl_imprv_arch_sm_s01.iff	0	1084.67	300	1130.78	0.92388	0	-0.382683	0		$|
4395547	0	object/static/structure/corellia/corl_imprv_arch_sm_s01.iff	0	1101.67	300	1123.78	0.707107	0	0.707106	0		$|
4395548	0	object/static/structure/corellia/corl_imprv_arch_sm_s01.iff	0	1098.67	300	1116.78	0.92388	0	-0.382683	0		$|
4395549	0	object/static/structure/corellia/corl_imprv_arch_sm_s01.iff	0	1084.67	300	1116.78	0.92388	0	0.382683	0		$|
4395550	0	object/static/structure/corellia/corl_imprv_arch_sm_s01.iff	0	1091.67	300	1133.78	1	0	0	0		$|
4395551	0	object/static/structure/corellia/corl_imprv_arch_sm_s01.iff	0	1098.67	300	1130.78	0.92388	0	0.382683	0		$|
4395552	0	object/static/structure/corellia/corl_fountain_brazier_square_s01.iff	0	1092	300	1124	1	0	0	0		$|
4395553	0	object/static/structure/corellia/corl_imprv_arch_lg_s01.iff	0	1110.36	300	1170.19	0.968241	0	0.250018	0		$|
4395554	0	object/static/structure/corellia/corl_imprv_arch_lg_s01.iff	0	1130.54	300	1206.77	0.968241	0	0.250018	0		$|
4445356	0	object/tangible/terminal/terminal_mission.iff	0	1151.77	300	1214.31	0.92388	0	-0.382683	0		$|
4445358	0	object/tangible/terminal/terminal_mission.iff	0	1152.71	300	1215.22	0.92388	0	-0.382683	0		$|
4445384	0	object/static/structure/corellia/corl_imprv_column_s02.iff	0	1157.96	364.017	1469.05	-0.707107	0	0.707107	0		$|
4445385	0	object/static/structure/corellia/corl_imprv_column_s02.iff	0	1169.96	364	1469.05	0.707108	0	-0.707106	0		$|
4445386	0	object/static/structure/corellia/corl_imprv_column_s02.iff	0	1169.96	364	1480.05	0.707108	0	-0.707106	0		$|
4445387	0	object/static/structure/corellia/corl_imprv_column_s02.iff	0	1157.96	364	1480.05	0.707108	0	-0.707106	0		$|
4445388	0	object/static/structure/corellia/corl_imprv_column_s02.iff	0	1159.96	364.026	1467.05	0.707108	0	0.707106	0		$|
4445389	0	object/static/structure/corellia/corl_imprv_column_s02.iff	0	1167.96	364	1467.05	0.707107	0	0.707107	0		$|
4445390	0	object/static/structure/corellia/corl_imprv_column_s02.iff	0	1167.96	364	1482.05	0.707107	0	0.707107	0		$|
4445391	0	object/static/structure/corellia/corl_imprv_column_s02.iff	0	1159.96	364	1482.05	0.707107	0	0.707107	0		$|
4445392	0	object/static/structure/corellia/corl_fountain_rectangle_s01.iff	0	1163.93	364	1475.08	1	0	0	0		$|
4445393	0	object/static/structure/general/bench_generic_style_1.iff	0	1163.96	364	1480.05	1	0	0	0		$|
4445394	0	object/static/structure/general/bench_generic_style_1.iff	0	1167.96	364	1475.05	0.707108	0	0.707106	0		$|
4445395	0	object/static/structure/general/bench_generic_style_1.iff	0	1163.96	364.009	1470.05	-3.20013e-008	0	1	0		$|
4445396	0	object/static/structure/general/bench_generic_style_1.iff	0	1159.96	364	1475.05	0.707108	0	-0.707106	0		$|
4445397	0	object/static/structure/general/streetlamp_large_style_01.iff	0	1163.96	364.009	1467.05	1	0	0	0		$|
4445398	0	object/static/structure/general/streetlamp_large_style_01.iff	0	1163.96	364	1482.36	-3.20013e-008	0	1	0		$|
4445399	0	object/tangible/terminal/terminal_mission.iff	0	1245.32	308	1475.33	0.382684	0	0.923879	0		$|
4445405	0	object/tangible/terminal/terminal_mission.iff	0	1245.49	308	1478.51	0.923879	0	0.382684	0		$|
4445409	0	object/static/structure/corellia/corl_imprv_column_s02.iff	0	1245.81	306.886	1476.92	0.707117	0	0.707096	0		$|
4445410	0	object/static/structure/corellia/corl_imprv_column_s02.iff	0	1243.81	306.886	1478.92	1	0	0	0		$|
4445411	0	object/static/structure/corellia/corl_imprv_column_s02.iff	0	1243.81	306.886	1474.92	1	0	0	0		$|
4445412	0	object/static/structure/corellia/corl_imprv_bridge_insert_s01.iff	0	1243.81	310.749	1476.92	0.707119	0	0.707094	0		$|
4445413	0	object/static/structure/corellia/corl_imprv_bridge_insert_s01.iff	0	1243.81	310.749	1476.92	1	0	0	0		$|
4445414	0	object/static/structure/corellia/corl_power_arial_prime.iff	0	1243.78	310.749	1476.79	1	0	0	0		$|
4445416	0	object/static/structure/corellia/corl_imprv_column_s02.iff	0	1241.81	306.886	1476.92	0.707107	0	0.707107	0		$|
5316176	0	object/tangible/terminal/terminal_bazaar.iff	0	1177.01	300.3	1275.07	0.92388	0	-0.382683	0		$|
5316177	0	object/tangible/terminal/terminal_bazaar.iff	0	1146.05	300.3	1306.23	0.382683	0	0.92388	0		$|
5316178	0	object/tangible/terminal/terminal_bazaar.iff	0	1177.08	300.3	1306.29	-0.382683	0	0.92388	0		$|
5316179	0	object/tangible/terminal/terminal_bazaar.iff	0	1146.06	300.3	1275.04	0.92388	0	0.382683	0		$|
5406018	0	object/static/structure/general/streetlamp_small_blue_style_01.iff	0	1112.01	294.324	893.028	1	0	0	0		$|
5406023	0	object/static/structure/general/streetlamp_medium_style_02.iff	0	1100.13	292.506	901.305	-3.20013e-008	0	1	0		$|
5406045	0	object/static/structure/general/streetlamp_medium_style_02.iff	0	1123.51	292.435	901.286	-3.20013e-008	0	1	0		$|
5406048	0	object/static/structure/general/streetlamp_small_green_style_01.iff	0	1094.91	295.945	884.399	-0.000796489	0	0	1		$|
5406059	0	object/static/structure/general/streetlamp_small_style_02.iff	0	1139.68	297.241	868.731	0.345449	0.628897	0.339967	0.607928		$|
5406067	0	object/static/structure/general/streetlamp_small_green_style_01.iff	0	1135.92	298.031	949.934	-0.00579639	0	0	0.999983		$|
5406069	0	object/static/structure/general/streetlamp_medium_style_01.iff	0	1163.55	290	911.095	0.707107	0	0.707106	0		$|
5406072	0	object/static/structure/general/streetlamp_medium_style_01.iff	0	1163.88	290	880.963	0.707107	0	0.707106	0		$|
5406073	0	object/static/structure/general/streetlamp_medium_style_01.iff	0	1164.89	290	931.44	0.707107	0	0.707106	0		$|
5406078	0	object/static/structure/general/streetlamp_small_blue_style_01.iff	0	1135.57	300.519	978.083	-0.135379	0	0	0.990794		$|
5406090	0	object/static/structure/general/streetlamp_small_red_style_01.iff	0	1041.01	282.528	908.018	0.992326	-0.0843126	0.0752223	0.0502252		$|
5406148	0	object/static/structure/general/streetlamp_small_green_style_01.iff	0	1127.97	307.969	1005.96	-0.000796383	0	0	1		$|
5406522	0	object/static/structure/general/streetlamp_large_style_02.iff	0	1066.73	300.593	1153.27	0.975305	0	-0.220863	0		$|
5406527	0	object/static/structure/general/streetlamp_large_style_02.iff	0	1092.75	300.601	1165.4	0.978508	0	-0.206209	0		$|
5406608	0	object/static/structure/general/streetlamp_small_style_01.iff	0	1126.19	302.374	1125.51	0.988012	7.32593e-008	-0.15438	-1.1447e-008		$|
5406619	0	object/static/structure/general/streetlamp_small_style_01.iff	0	1116.94	302.371	1153.04	0.986418	0	-0.164252	0		$|
5406673	0	object/static/structure/general/streetlamp_small_green_style_01.iff	0	1130.56	305.948	1206.74	-3.08842e-008	0.965092	8.38143e-009	-0.261909		$|
5406724	0	object/static/structure/general/streetlamp_small_style_01.iff	0	1258.61	306.784	1280.82	0.653281	0.653281	-0.270598	0.270598		$|
5406732	0	object/static/structure/general/streetlamp_small_green_style_01.iff	0	1177.3	311.226	1275.07	0.329973	0.338767	0.252631	0.844116		$|
5406832	0	object/static/structure/general/streetlamp_small_green_style_01.iff	0	1177.05	311.494	1306.14	0.353553	-0.353553	-0.146447	0.853553		$|
5406838	0	object/static/structure/general/streetlamp_small_green_style_01.iff	0	1146.11	311.449	1306.19	-0.314772	0.844918	0.14283	0.408206		$|
5406857	0	object/static/structure/general/streetlamp_small_green_style_01.iff	0	1146.11	311.352	1275.21	0.410518	0.831034	0.139577	-0.34839		$|
5406863	0	object/static/structure/general/streetlamp_large_style_02.iff	0	1231.2	300	1358.1	0.92388	0	0.382683	0		$|
5406864	0	object/static/structure/general/streetlamp_large_style_02.iff	0	1259.85	307.967	1386.66	0.92388	0	0.382683	0		$|
5406966	0	object/static/structure/general/streetlamp_small_style_01.iff	0	1250.85	309.297	1407.97	1	0	0	0		$|
5406971	0	object/static/structure/general/streetlamp_small_red_style_01.iff	0	1274.22	318.212	1423.79	-3.02867e-008	0.970137	7.57236e-009	-0.242556		$|
5406989	0	object/static/structure/general/streetlamp_medium_green_style_01.iff	0	1243.78	312.111	1476.99	1	0	0	0		$|
5407022	0	object/static/structure/general/streetlamp_large_red_style_01.iff	0	1293.89	308	1572.86	0.707107	0	-0.707106	0		$|
5407026	0	object/static/structure/general/streetlamp_small_red_style_02.iff	0	1285.88	324	1629.87	0.92388	0	0.382683	0		$|
5407027	0	object/static/structure/general/streetlamp_small_red_style_02.iff	0	1278.4	324	1622.35	1	0	0	0		$|
5407030	0	object/static/structure/general/streetlamp_small_green_style_01.iff	0	1303.31	313.945	1423.28	-3.12983e-008	0.978031	6.67099e-009	-0.20846		$|
5407033	0	object/static/structure/general/streetlamp_small_green_style_01.iff	0	1287.8	313.882	1389.41	-3.123e-008	0.975897	6.98363e-009	-0.21823		$|
5407035	0	object/static/structure/general/streetlamp_small_red_style_01.iff	0	1320.67	311.194	1363.23	1	0	0	0		$|
5407040	0	object/static/structure/general/streetlamp_small_red_style_01.iff	0	1343.33	311.162	1405.09	1	0	0	0		$|
5407044	0	object/static/structure/general/streetlamp_large_style_01.iff	0	1215.97	300	1332.97	1	0	0	0		$|
5515426	0	object/static/structure/general/streetlamp_small_red_style_01.iff	0	1107.97	300.406	1052.39	0.982936	0	0	-0.183946		$|
5515427	0	object/static/structure/general/streetlamp_small_red_style_01.iff	0	1091.89	300.411	1052.29	1	0	0	0		$|
5585436	0	object/static/item/item_container_inorganic_minerals.iff	0	1298.81	308.67	1391.91	0.956802	0	-0.29074	0		$|
5585437	0	object/static/item/item_container_installation.iff	0	1298.77	308	1391.88	1	0	0	0		$|
5585438	0	object/tangible/terminal/terminal_mission_artisan.iff	0	1242.34	308	1475.29	-0.382683	0	0.92388	0		$|
5585440	0	object/tangible/terminal/terminal_mission_artisan.iff	0	1242.25	308	1478.41	0.92388	0	-0.382683	0		$|
5585442	0	object/tangible/terminal/terminal_mission_entertainer.iff	0	1243.87	308	1480.28	1	0	0	0		$|
5585444	0	object/tangible/terminal/terminal_mission_entertainer.iff	0	1243.74	308	1473.5	-3.20013e-008	0	1	0		$|
5585446	0	object/tangible/terminal/terminal_mission_scout.iff	0	1247.34	308	1476.97	0.707107	0	0.707106	0		$|
5585448	0	object/tangible/terminal/terminal_mission_scout.iff	0	1240.28	308	1476.88	0.707107	0	-0.707106	0		$|
5585466	0	object/tangible/terminal/terminal_mission_scout.iff	0	1152.44	300	1225.18	-0.382683	0	0.92388	0		$|
5585470	0	object/tangible/terminal/terminal_mission_entertainer.iff	0	1155.19	300	1222.41	-0.707107	0	0.707107	0		$|
5585472	0	object/tangible/terminal/terminal_mission_artisan.iff	0	1155.51	300	1218.26	-0.707107	0	0.707107	0		$|
5585474	0	object/static/structure/general/streetlamp_large_style_01.iff	0	1154.07	300	1220.78	0.707107	0	-0.707106	0		$|
5585475	0	object/tangible/terminal/terminal_mission_scout.iff	0	1153.37	300	1224.27	-0.382683	0	0.92388	0		$|
5585478	0	object/tangible/terminal/terminal_mission_entertainer.iff	0	1342.05	308.6	1376.48	0.863968	0	-0.503547	0		$|
5585480	0	object/tangible/terminal/terminal_mission_entertainer.iff	0	1342.77	308.6	1377.59	0.863968	0	-0.503547	0		$|
5585482	0	object/tangible/terminal/terminal_mission_entertainer.iff	0	1343.56	308.6	1378.93	0.863968	0	-0.503547	0		$|
5585490	0	object/tangible/terminal/terminal_mission.iff	0	1140.09	290	879.012	0.707107	0	0.707106	0		$|
5585505	0	object/tangible/terminal/terminal_mission_artisan.iff	0	1139.87	290	889.126	0.707107	0	0.707106	0		$|
5585507	0	object/tangible/terminal/terminal_mission_scout.iff	0	1151.96	290	878.961	-0.707107	0	0.707107	0		$|
5585509	0	object/tangible/terminal/terminal_mission_entertainer.iff	0	1152.14	290	889.094	0.707107	0	-0.707106	0		$|
5585511	0	object/tangible/terminal/terminal_mission_artisan.iff	0	1125.87	290	900.485	-3.20013e-008	0	1	0		$|
5585513	0	object/tangible/terminal/terminal_mission_artisan.iff	0	1127.94	290	900.479	-3.20013e-008	0	1	0		$|
5585534	0	object/tangible/terminal/terminal_bazaar.iff	0	1040.63	280	917.169	-3.20013e-008	0	1	0		$|
5585535	0	object/tangible/terminal/terminal_bank.iff	0	1043.38	279.999	917.005	-3.20013e-008	0	1	0		$|
5585561	0	object/static/structure/corellia/corl_tent_small.iff	0	1210.32	300.345	1322.66	0.92335	-0.0135312	0.382329	0.0326533		$|
5585563	0	object/static/item/item_briefcase.iff	0	1209.74	300	1323.33	1	0	0	0		$|
5585564	0	object/tangible/furniture/all/frn_all_table_s03.iff	0	1208.2	300	1320.44	1	0	0	0		$|
5585565	0	object/static/item/item_document.iff	0	1208.17	300.759	1320.49	1	0	0	0		$|
5585566	0	object/static/item/item_document.iff	0	1208.07	300.759	1320.25	0.972514	0	-0.232843	0		$|
5585567	0	object/static/item/item_document.iff	0	1208.38	300.759	1320.65	1	0	0	0		$|
5585568	0	object/static/item/item_diagnostic_screen.iff	0	1208.05	300.75	1320.89	1	0	0	0		$|
6035534	0	object/static/structure/corellia/corl_imprv_wall_4x16_s02.iff	0	1029.05	300	1151.95	1	0	0	0		$|
7125390	0	object/static/structure/corellia/corl_imprv_wall_4x16_s02.iff	0	1029	300	1178	1	0	0	0		$|
7125392	0	object/static/structure/corellia/corl_imprv_wall_4x16_s02.iff	0	1016	300	1165	0.707107	0	0.707106	0		$|
7125393	0	object/static/structure/corellia/corl_imprv_wall_4x16_s02.iff	0	1042	300	1165	0.707111	0	0.707102	0		$|
7125394	0	object/static/structure/corellia/corl_imprv_column_s01.iff	0	1021	300	1178	2.41953e-007	0	1	0		$|
7125395	0	object/static/structure/corellia/corl_imprv_column_s01.iff	0	1037	300	1178	0	0	1	0		$|
7125396	0	object/static/structure/corellia/corl_imprv_column_s01.iff	0	1037	300	1152	0	0	1	0		$|
7125397	0	object/static/structure/corellia/corl_imprv_column_s01.iff	0	1021	300	1152	0	0	1	0		$|
7125398	0	object/static/structure/corellia/corl_imprv_column_s01.iff	0	1016	300	1157	0.707107	0	0.707106	0		$|
7125399	0	object/static/structure/corellia/corl_imprv_column_s01.iff	0	1016	300	1173	0.707107	0	0.707107	0		$|
7125400	0	object/static/structure/corellia/corl_imprv_column_s01.iff	0	1042	300	1173	0.707107	0	0.707107	0		$|
7125401	0	object/static/structure/corellia/corl_imprv_column_s01.iff	0	1042	300	1157	0.707107	0	0.707107	0		$|
7125402	0	object/tangible/crafting/station/public_clothing_station.iff	0	1032	300	1154	0.707107	0	0.707106	0		$|
7125403	0	object/tangible/crafting/station/public_clothing_station.iff	0	1026	300	1154	0.707107	0	0.707107	0		$|
7125405	0	object/tangible/crafting/station/public_food_station.iff	0	1018	300	1162	0.707108	0	0.707106	0		$|
7125406	0	object/tangible/crafting/station/public_food_station.iff	0	1018	300	1168	0.707114	0	0.707099	0		$|
7125408	0	object/tangible/crafting/station/public_structure_station.iff	0	1026	300	1176	-3.20013e-008	0	1	0		$|
7125409	0	object/tangible/crafting/station/public_structure_station.iff	0	1032	300	1176	0	0	1	0		$|
7125411	0	object/tangible/crafting/station/public_weapon_station.iff	0	1040	300	1168	0.707108	0	-0.707106	0		$|
7125412	0	object/tangible/crafting/station/public_weapon_station.iff	0	1040	300	1160	-0.707107	0	0.707107	0		$|
7125419	0	object/static/structure/corellia/corl_banner_govt_tall_s01.iff	0	1029	300	1164	1	0	0	0		$|
7125420	0	object/static/structure/corellia/corl_banner_govt_tall_s01.iff	0	1029	300	1166	1	0	0	0		$|
7125421	0	object/static/structure/corellia/corl_power_arial_prime.iff	0	1029	300	1165	0.707107	0	0.707107	0		$|
8675771	0	object/static/structure/corellia/corl_imprv_flagpole_s01.iff	0	1274.33	319.636	1423.86	1	0	0	0		$|
8675772	0	object/static/structure/corellia/corl_imprv_bannerpole_s01.iff	0	1259.69	301.39	1286.25	0.92388	0	-0.382683	0		$|
8675773	0	object/static/structure/corellia/corl_imprv_bannerpole_s01.iff	0	1253.38	301.39	1279.83	0.92388	0	-0.382683	0		$|
8675774	0	object/static/structure/corellia/corl_imprv_flagpole_s01.iff	0	1099.89	307.351	1060.54	1	0	0	0		$|
8675779	0	object/static/structure/corellia/corl_imprv_flagpole_s01.iff	0	1040.96	280.379	897.157	1	0	0	0		$|
9555455	0	object/tangible/crafting/station/public_food_station.iff	0	1265.51	308	1429.99	0.968912	0	0.247404	0		$|
9555456	0	object/tangible/crafting/station/public_clothing_station.iff	0	1263.57	308	1438.26	-0.235467	0	0.971882	0		$|
9555462	0	object/tangible/instrument/ommni_box.iff	0	1259.44	308	1428.13	0.286715	0	0.958016	0		$|
9665352	0	object/building/corellia/starport_corellia.iff	0	1329.14	308	1509.06	-0.236929	0	0.971527	0	structure.municipal.starport	travel.air_time|0|60|travel.cost|0|150|travel.ground_time|0|300|travel.point_name|4|Doaba Guerfel Starport|travel.shuttle_available|0|1|travel.version|0|3|$|
10020121	9665352	object/cell/cell.iff	1	0	0	0	1	0	0	0		$|
10020122	9665352	object/cell/cell.iff	2	0	0	0	1	0	0	0		$|
10020123	9665352	object/cell/cell.iff	3	0	0	0	1	0	0	0		$|
10020124	9665352	object/cell/cell.iff	4	0	0	0	1	0	0	0		$|
10020125	9665352	object/cell/cell.iff	5	0	0	0	1	0	0	0		$|
10020126	9665352	object/cell/cell.iff	6	0	0	0	1	0	0	0		$|
10020127	9665352	object/cell/cell.iff	7	0	0	0	1	0	0	0		$|
10020128	9665352	object/cell/cell.iff	8	0	0	0	1	0	0	0		$|
10020129	9665352	object/cell/cell.iff	9	0	0	0	1	0	0	0		$|
10020130	9665352	object/cell/cell.iff	10	0	0	0	1	0	0	0		$|
10020131	9665352	object/cell/cell.iff	11	0	0	0	1	0	0	0		$|
10020132	9665352	object/cell/cell.iff	12	0	0	0	1	0	0	0		$|
10020133	9665352	object/cell/cell.iff	13	0	0	0	1	0	0	0		$|
10020134	9665352	object/cell/cell.iff	14	0	0	0	1	0	0	0		$|
10020135	9665352	object/cell/cell.iff	15	0	0	0	1	0	0	0		$|
10020136	9665352	object/cell/cell.iff	16	0	0	0	1	0	0	0		$|
10037166	10020124	object/tangible/terminal/terminal_space.iff	4	5.036217212677	.639421403408051	60.5857276916504	1	0	0	0	space.terminal.terminal_space	$|
10037167	10020124	object/tangible/terminal/terminal_space.iff	4	5.06129455566406	.639421403408051	59.9869842529297	.00420367019250989	0	.999991238117218	0	space.terminal.terminal_space	$|
10037168	10020124	object/tangible/terminal/terminal_space.iff	4	-5.76612329483032	.639423787593842	60.6152000427246	1	0	0	0	space.terminal.terminal_space	$|
10038169	10020124	object/tangible/terminal/terminal_space.iff	4	-5.77036142349243	.639423668384552	60.0164566040039	-.00420371536165476	0	.999991178512573	0	space.terminal.terminal_space	$|
1509591	10020124	object/tangible/space/content_infrastructure/ground_npc_spawner.iff	4	9.95971965789795	.639421999454498	67.7167510986328	0.00	0.00	1.00	0.00	conversation.chassis_npc	$|
10038170	10020130	object/tangible/terminal/terminal_space.iff	10	-37.86	1.64	49.20	-0.65	0.00	0.76	0.00	space.terminal.terminal_space	$|
10038171	10020130	object/tangible/terminal/terminal_space.iff	10	-44.06	1.64	50.20	0.77	0.00	0.64	0.00	space.terminal.terminal_space	$|
5245540	10020132	object/tangible/space/content_infrastructure/ground_npc_spawner.iff	12	-47.572151184082	2.63941764831543	32.3028450012207	.900447070598602	0	-.434965640306473	0		$|
9775366	0	object/static/structure/general/droid_r5_powerdown.iff	0	1288.11	308	1404.96	0.862001	0	-0.506907	0		$|
9775370	0	object/static/structure/general/droid_lemedical_powerdown.iff	0	1289.96	308	1408.07	0.745174	0	-0.66687	0		$|
9825937	0	object/static/structure/corellia/corl_imprv_column_s04.iff	0	468.231	289.143	1875.78	1	0	0	0		$|
9825938	0	object/static/structure/corellia/corl_imprv_column_s04.iff	0	468.096	289.377	1870.15	1	0	0	0		$|
9825939	0	object/static/structure/corellia/corl_imprv_column_s04.iff	0	461.228	289.164	1873.02	0.707107	0	-0.707107	0		$|
9825941	0	object/static/structure/corellia/corl_imprv_column_s04.iff	0	476.04	289.313	1872.74	0.707107	0	-0.707107	0		$|
3075527	0	object/building/corellia/filler_slum_24x16_s02.iff	0	1041.97	279.999	922.522	0.707108	0	-0.707106	0		$|
