objid	container	server_template_crc	cell_index	px	py	pz	qw	qx	qy	qz	scripts	objvars
i	i	h	i	f	f	f	f	f	f	f	s	p
2955772	0	object/static/particle/pt_flocking_glowzees.iff	0	1113.77	73.7823	184.28	1	0	0	0		$|
3035371	0	object/building/corellia/ply_corl_house_s_s02_fp1.iff	0	1221.96	72.9991	486.189	0.00420401	0	0.999991	0		$|
13000088	3035371	object/cell/cell.iff	1	0	0	0	1	0	0	0		$|
13000089	3035371	object/cell/cell.iff	2	0	0	0	1	0	0	0		$|
13000090	3035371	object/cell/cell.iff	3	0	0	0	1	0	0	0		$|
7536618	13000088	object/tangible/space/content_infrastructure/ground_npc_spawner.iff	1	-3.90556287765503	.625	.990983128547668	1	0	0	0	conversation.yavin_rebel_trainer_2	$|
3035375	0	object/building/corellia/ply_corl_house_m_s01_fp1.iff	0	1306.52	73	478.002	-0.505877	0	0.862606	0	theme_park.dungeon.generic_spawner	spawn_table|4|datatables/spawning/clone_relic/ep3_yavin_labor_outpost_tavern.iff|$|
13000106	3035375	object/cell/cell.iff	1	0	0	0	1	0	0	0		$|
13000107	3035375	object/cell/cell.iff	2	0	0	0	1	0	0	0		$|
13000108	3035375	object/cell/cell.iff	3	0	0	0	1	0	0	0		$|
13000109	3035375	object/cell/cell.iff	4	0	0	0	1	0	0	0		$|
7536620	13000106	object/tangible/space/content_infrastructure/ground_npc_spawner.iff	1	-1.92171990871429	.62499988079071	2.89864325523376	1	0	0	0	conversation.corellia_rebel_tier3	$|
3035387	0	object/building/military/military_outpost_guard_house_imperial.iff	0	1310.14	73	383.683	0.37166	0	0.928369	0		$|
3035390	0	object/building/military/pirate_outpost.iff	0	1249.95	73.0003	379.368	1	0	0	0		$|
3035397	0	object/building/military/outpost_shed.iff	0	1267.42	73	379.281	1	0	0	0		$|
3035404	0	object/building/military/military_outpost_guard_tower_1.iff	0	1317.49	73	420.906	0	0	1	0		$|
3035405	0	object/building/military/military_outpost_guard_tower_1.iff	0	1317.49	73	445.6	-7.48E-07	0	1	0		$|
3035406	0	object/static/structure/corellia/corl_imprv_wall_4x32_s04.iff	0	1259.17	73	495.175	1	0	0	0		$|
3035407	0	object/static/structure/military/military_column_strong_imperial_style_01.iff	0	1276.17	73	495.175	1	0	0	0		$|
3035408	0	object/static/structure/corellia/corl_imprv_wall_4x32_s04.iff	0	1276.13	73	433.077	0.707117	0	-0.707096	0		$|
3035409	0	object/static/structure/military/military_column_strong_imperial_style_01.iff	0	1276.17	73	467.175	0.678557	0	0.734548	0		$|
3035410	0	object/static/structure/military/military_column_strong_imperial_style_01.iff	0	1242.17	73	467.175	1	0	0	0		$|
3035411	0	object/static/structure/military/military_column_strong_imperial_style_01.iff	0	1287.3	73	483.701	-0.39934	0	0.916803	0		$|
3035412	0	object/static/structure/corellia/corl_imprv_wall_4x16_s02.iff	0	1281.56	73	489.75	0.92388	0	0.382683	0		$|
3035413	0	object/static/structure/corellia/corl_imprv_wall_4x32_s02.iff	0	1259.17	73	467.175	1	0	0	0		$|
3035414	0	object/static/structure/corellia/corl_imprv_wall_4x16_s04.iff	0	1276.17	73	458.175	0.707114	0	-0.707099	0		$|
3035415	0	object/static/structure/military/military_column_strong_imperial_style_01.iff	0	1276.17	73	450.175	0.738471	0	0.674285	0		$|
3035416	0	object/static/structure/military/military_column_strong_imperial_style_01.iff	0	1243.17	73	495.175	1	0	0	0		$|
3035417	0	object/static/structure/corellia/corl_imprv_wall_4x32_s04.iff	0	1321.17	73	467.175	0.707115	0	-0.707098	0		$|
3035418	0	object/static/structure/military/military_column_strong_imperial_style_01.iff	0	1309.17	73	495.175	1	0	0	0		$|
3035419	0	object/static/structure/corellia/corl_imprv_wall_4x16_s02.iff	0	1314.94	73	456.316	0.92388	0	0.382683	0		$|
3035420	0	object/static/structure/military/military_column_strong_imperial_style_01.iff	0	1309.25	73	462.127	-0.413046	0	0.91071	0		$|
3035421	0	object/static/structure/military/military_column_strong_imperial_style_01.iff	0	1276.17	73	399.175	0	0	1	0		$|
3035422	0	object/static/structure/corellia/corl_imprv_wall_4x32_s02.iff	0	1259.17	73	399.175	0	0	1	0		$|
3035423	0	object/static/structure/military/military_column_strong_imperial_style_01.iff	0	1242.17	73	399.175	0.734546	0	-0.678559	0		$|
3035424	0	object/static/structure/corellia/corl_imprv_wall_4x16_s04.iff	0	1276.17	73	407.175	-0.707107	0	0.707107	0		$|
3035425	0	object/static/structure/military/military_column_strong_imperial_style_01.iff	0	1276.13	73	416.077	0.707396	0	0.706817	0		$|
3035426	0	object/static/structure/military/military_column_strong_imperial_style_01.iff	0	1197.25	73.0025	416.453	0.724832	0	-0.688926	0		$|
3035427	0	object/static/structure/corellia/corl_imprv_wall_4x16_s02.iff	0	1197.17	73.0039	408.175	0.707113	0	-0.7071	0		$|
3035428	0	object/static/structure/military/military_column_strong_imperial_style_01.iff	0	1197.17	73.1322	399.175	-0.696707	0	0.717356	0		$|
3035429	0	object/static/structure/corellia/corl_imprv_wall_4x16_s04.iff	0	1197.17	73.274	390.175	-0.707107	0	0.707107	0		$|
3035430	0	object/static/structure/military/military_column_strong_imperial_style_01.iff	0	1197.17	73.5056	382.175	-0.380925	0	0.924606	0		$|
3035431	0	object/static/structure/corellia/corl_imprv_wall_4x16_s04.iff	0	1203.17	73.6517	376.175	0.92388	0	0.382683	0		$|
3035432	0	object/static/structure/military/military_column_strong_imperial_style_01.iff	0	1209.17	73.6712	370.175	0.004204	0	0.999991	0		$|
3035433	0	object/static/structure/corellia/corl_imprv_wall_4x32_s04.iff	0	1292.17	73	370.175	0	0	1	0		$|
3035434	0	object/static/structure/military/military_column_strong_imperial_style_01.iff	0	1275.17	73	370.175	0	0	1	0		$|
3035435	0	object/static/structure/corellia/corl_imprv_wall_4x32_s04.iff	0	1259.17	73	370.175	0	0	1	0		$|
3035436	0	object/static/structure/military/military_column_strong_imperial_style_01.iff	0	1242.17	73.0111	370.175	0	0	1	0		$|
3035437	0	object/static/structure/corellia/corl_imprv_wall_4x32_s04.iff	0	1226.17	73.17	370.175	0	0	1	0		$|
3035438	0	object/static/structure/military/military_column_strong_imperial_style_01.iff	0	1309.17	73.2722	370.175	0.305818	0	0.95209	0		$|
3035439	0	object/static/structure/corellia/corl_imprv_wall_4x16_s04.iff	0	1315.17	73.3555	376.175	0.92388	0	-0.382683	0		$|
3035440	0	object/static/structure/military/military_column_strong_imperial_style_01.iff	0	1321.17	73.5413	382.175	0.704914	0	0.709292	0		$|
3035441	0	object/static/structure/corellia/corl_imprv_wall_4x32_s04.iff	0	1321.17	73	399.175	0.707114	0	-0.707099	0		$|
3035442	0	object/static/structure/military/military_column_strong_imperial_style_01.iff	0	1321.17	73	416.175	0.707394	0	0.706819	0		$|
3035443	0	object/static/structure/corellia/corl_imprv_wall_4x32_s04.iff	0	1321.17	73	433.175	0.707114	0	-0.707099	0		$|
3035444	0	object/static/structure/military/military_column_strong_imperial_style_01.iff	0	1321.17	73	450.175	0.73847	0	0.674286	0		$|
3035445	0	object/static/structure/corellia/corl_power_box_node.iff	0	1240.08	73.0099	378.911	1	0	0	0		$|
3035446	0	object/static/structure/corellia/corl_power_bubble_node.iff	0	1300.32	73	491.82	1	0	0	0		$|
3035447	0	object/static/structure/corellia/corl_imprv_wall_4x16_s02.iff	0	1312.59	73	450.098	1	0	0	0		$|
3035448	0	object/static/structure/general/tankfarm_s01.iff	0	1235.21	73	491.694	1	0	0	0		$|
3035449	0	object/static/structure/corellia/corl_power_arial_thin.iff	0	1241.27	73	490.103	1	0	0	0		$|
3035450	0	object/static/structure/corellia/corl_power_arial_prime.iff	0	1240.62	73	491.186	1	0	0	0		$|
3035451	0	object/static/structure/corellia/corl_power_box_node.iff	0	1232.38	73	485.981	0.999888	0	-0.014999	0		$|
3035452	0	object/static/structure/corellia/corl_power_connector.iff	0	1235.23	72.6838	485.652	1	0	0	0		$|
3035453	0	object/static/structure/corellia/corl_power_bubble_node.iff	0	1241.52	73	485.571	1	0	0	0		$|
3035454	0	object/static/structure/corellia/corl_imprv_wall_4x16_s02.iff	0	1312.45	73	416.036	1	0	0	0		$|
3035455	0	object/static/structure/military/military_column_strong_imperial_style_01.iff	0	1303.6	73	416.215	-0.70626	0	0.707952	0		$|
3035456	0	object/static/structure/military/military_column_strong_imperial_style_01.iff	0	1303.54	73	449.969	-0.70626	0	0.707952	0		$|
3035457	0	object/static/structure/corellia/corl_imprv_wall_4x16_s02.iff	0	1303.5	73	441.149	0.707114	0	-0.707099	0		$|
3035458	0	object/static/structure/military/military_column_strong_imperial_style_01.iff	0	1303.34	73	432.419	-0.70626	0	0.707952	0		$|
3035459	0	object/static/structure/corellia/corl_power_arial_thin.iff	0	1315.6	73	393.905	1	0	0	0		$|
3035460	0	object/static/structure/corellia/corl_power_arial_prime.iff	0	1316.63	73	393.097	1	0	0	0		$|
3035461	0	object/static/structure/corellia/corl_imprv_wall_4x32_s04.iff	0	1292.17	73	495.175	1	0	0	0		$|
3035462	0	object/static/structure/corellia/corl_power_arial_thin.iff	0	1239.41	73.0142	375.889	1	0	0	0		$|
3035463	0	object/static/structure/corellia/corl_power_bubble_node.iff	0	1240.17	73.0034	383.565	1	0	0	0		$|
3035464	0	object/static/structure/corellia/corl_power_bubble_node.iff	0	1316.89	73	401.892	1	0	0	0		$|
3035465	0	object/static/structure/corellia/corl_power_box_node.iff	0	1316.84	73	397.454	1	0	0	0		$|
3035466	0	object/static/structure/corellia/corl_power_arial_thin.iff	0	1304.85	73	493.676	1	0	0	0		$|
3035467	0	object/static/structure/corellia/corl_power_arial_prime.iff	0	1306.04	73	493.132	1	0	0	0		$|
3035468	0	object/static/structure/corellia/corl_power_arial_prime.iff	0	1240.73	73.0131	373.849	1	0	0	0		$|
3035469	0	object/static/structure/corellia/corl_imprv_wall_4x16_s04.iff	0	1315.17	73	489.175	0.92388	0	0.382683	0		$|
3035470	0	object/static/structure/military/military_column_strong_imperial_style_01.iff	0	1321.17	73	483.175	0.924909	0	0.380188	0		$|
3035471	0	object/static/structure/military/military_column_strong_imperial_style_01.iff	0	1198.17	72.9496	447.175	-0.678557	0	0.734548	0		$|
3035472	0	object/static/structure/corellia/corl_imprv_wall_4x16_s02.iff	0	1198.17	72.9496	456.175	0.707116	0	-0.707097	0		$|
3035473	0	object/static/structure/corellia/corl_imprv_wall_4x32_s04.iff	0	1226.17	73	495.175	1	0	0	0		$|
3035474	0	object/static/structure/military/military_column_strong_imperial_style_01.iff	0	1198.17	72.8783	465.175	-0.685869	0	0.727726	0		$|
3035475	0	object/static/structure/corellia/corl_imprv_wall_4x16_s04.iff	0	1198.17	72.5976	474.175	0.707116	0	-0.707097	0		$|
3035476	0	object/static/structure/military/military_column_strong_imperial_style_01.iff	0	1210.17	72.415	495.175	0.928665	0	-0.37092	0		$|
3035477	0	object/static/structure/corellia/corl_imprv_wall_4x16_s04.iff	0	1204.17	72.7715	489.175	0.92388	0	-0.382683	0		$|
3035478	0	object/static/structure/military/military_column_strong_imperial_style_01.iff	0	1198.17	72.4721	483.175	-0.703845	0	0.710353	0		$|
3035479	0	object/static/structure/tatooine/debris_tatt_crate_1.iff	0	1297.19	73	493.889	1	0	0	0		$|
3035481	0	object/static/structure/tatooine/debris_tatt_drum_dented_1.iff	0	1297.62	73	492.603	1	0	0	0		$|
3035482	0	object/static/structure/tatooine/debris_tatt_drum_storage_1.iff	0	1299.65	73	489.399	1	0	0	0		$|
3035484	0	object/building/military/outpost_starport.iff	0	1252.57	73	437.824	0.707107	0	-0.707106	0	structure.municipal.starport	travel.air_time|0|60|travel.cost|0|150|travel.ground_time|0|300|travel.point_name|4|Labor Outpost|travel.shuttle_available|0|1|travel.version|0|3|$|
13000053	3035484	object/cell/cell.iff	1	0	0	0	1	0	0	0		$|
13011961	13000053	object/tangible/terminal/terminal_space.iff	1	-7.44324922561646	.146595031023026	-19.2488059997559	1.00	0.00	0.00	0.00	space.terminal.terminal_space	$|
3035491	0	object/tangible/furniture/tatooine/frn_tato_table_small_style_01.iff	0	1285.19	73	491.853	1	0	0	0		$|
3035493	0	object/tangible/furniture/tatooine/frn_tato_chair_cafe_style_02.iff	0	1284.13	73	491.113	0.847255	0	0.531186	0		$|
3035494	0	object/tangible/furniture/tatooine/frn_tato_chair_cafe_style_02.iff	0	1286.39	73	492.586	-0.52762	0	0.849481	0		$|
3035495	0	object/tangible/furniture/tatooine/frn_tato_chair_cafe_style_02.iff	0	1284.43	73	492.992	0.277121	0	0.960835	0		$|
3035496	0	object/tangible/furniture/tatooine/frn_tato_table_small_style_01.iff	0	1292.97	73	492.051	0.780707	0	0.624897	0		$|
3035497	0	object/tangible/furniture/tatooine/frn_tato_chair_cafe_style_02.iff	0	1292.02	73	492.929	0.514819	0	0.857299	0		$|
3035498	0	object/tangible/furniture/tatooine/frn_tato_chair_cafe_style_02.iff	0	1293.95	73	491.048	-0.519098	0	0.854715	0		$|
3035499	0	object/tangible/furniture/tatooine/frn_tato_chair_cafe_style_02.iff	0	1293.92	73	493.051	-0.384073	0	0.923303	0		$|
3035500	0	object/tangible/furniture/tatooine/frn_tato_table_small_style_01.iff	0	1288.54	73	487.7	0.961055	0	0.276356	0		$|
3035501	0	object/tangible/furniture/tatooine/frn_tato_chair_cafe_style_02.iff	0	1287.25	73	487.637	0.540303	0	0.841471	0		$|
3035502	0	object/tangible/furniture/tatooine/frn_tato_chair_cafe_style_02.iff	0	1289.39	73	487.813	-0.671176	0	0.741298	0		$|
3035503	0	object/tangible/furniture/tatooine/frn_tato_chair_cafe_style_02.iff	0	1288.5	73	489.071	0.301053	0	0.953607	0		$|
3035504	0	object/tangible/furniture/tatooine/frn_tato_chair_cafe_style_02.iff	0	1291.97	73	490.889	0.674876	0	0.737931	0		$|
3035506	0	object/tangible/furniture/tatooine/frn_tato_cafe_parasol.iff	0	1288.63	73	490.68	1	0	0	0		$|
3035508	0	object/tangible/furniture/tatooine/frn_tato_fruit_stand_small_style_01.iff	0	1318.7	73	455.754	0.968814	0	-0.247789	0		$|
3035512	0	object/tangible/furniture/tatooine/frn_tato_tbl_cafe_table_style_01.iff	0	1317.74	73	468.927	0.96639	0	-0.25708	0		$|
3035513	0	object/tangible/furniture/tatooine/frn_tato_chair_cafe_style_01.iff	0	1319.31	73	468.691	0.924909	0	-0.380188	0		$|
3035514	0	object/tangible/furniture/tatooine/frn_tato_chair_cafe_style_01.iff	0	1317.7	73	470.536	-0.132309	0	0.991209	0		$|
3035515	0	object/tangible/furniture/tatooine/frn_tato_tbl_cafe_table_style_01.iff	0	1312.23	73	465.568	0.968912	0	-0.247404	0		$|
3035516	0	object/tangible/furniture/tatooine/frn_tato_chair_cafe_style_01.iff	0	1313.58	73	464.752	0.928665	0	-0.37092	0		$|
3035517	0	object/tangible/furniture/tatooine/frn_tato_chair_cafe_style_01.iff	0	1312.81	73	467.065	-0.142215	0	0.989836	0		$|
3035521	0	object/tangible/furniture/tatooine/frn_tato_cafe_parasol.iff	0	1317.39	73	464.013	1	0	0	0		$|
3035523	0	object/static/structure/general/streetlamp_medium_green_style_02.iff	0	1294.35	73.4372	484.291	0.862807	0	-0.505533	0		$|
3035525	0	object/static/structure/general/streetlamp_medium_blue_style_01.iff	0	1214.42	73.4084	478.37	0.968912	0	0.247404	0		$|
3035528	0	object/static/item/item_medic_bacta_tank_advanced.iff	0	1218.06	73	477.536	1	0	0	0		$|
3035529	0	object/static/item/item_medic_bacta_tank_advanced.iff	0	1218.88	73	477.51	1	0	0	0		$|
3035593	0	object/building/military/outpost_cloning_facility.iff	0	1211.94	73	382.061	0.891568	0	0.452886	0		$|
3035689	0	object/static/structure/tatooine/debris_tatt_drum_dented_1.iff	0	1298.95	73	488.609	0.952334	0	0.305059	0		$|
3035723	0	object/tangible/terminal/terminal_mission.iff	0	1309.44	73	459.783	-0.39934	0	0.916803	0		$|
3035725	0	object/tangible/terminal/terminal_mission.iff	0	1312.32	73	456.993	-0.367013	0	0.930216	0		$|
3035727	0	object/tangible/terminal/terminal_bank.iff	0	1309.7	73	451.599	0.99875	0	0.0499792	0		$|
3035728	0	object/tangible/terminal/terminal_bank.iff	0	1305.67	73	451.724	1	0	0	0		$|
3035732	0	object/static/structure/general/streetlamp_large_style_01.iff	0	1317.14	73	451.75	0.825336	0	-0.564643	0		$|
3035733	0	object/tangible/crafting/station/public_weapon_station.iff	0	1319.68	73	426.084	0.707107	0	-0.707106	0		$|
3035734	0	object/tangible/crafting/station/public_weapon_station.iff	0	1319.71	73	431.325	0.707107	0	-0.707106	0		$|
3035735	0	object/static/structure/military/military_wall_weak_imperial_16_style_01.iff	0	1314.39	70.5971	431.707	0.707107	0	-0.707106	0		$|
3035740	0	object/static/structure/general/streetlamp_medium_style_01.iff	0	1315.66	72.9051	424.958	0.939373	0	0.342898	0		$|
3035741	0	object/static/structure/general/streetlamp_medium_style_01.iff	0	1258.68	72.8642	386.373	1	0	0	0		$|
3035743	0	object/static/structure/tatooine/antenna_tatt_style_2.iff	0	1269.7	83.6401	449.514	1	0	0	0		$|
3035744	0	object/static/structure/corellia/corl_power_arial_prime.iff	0	1269.79	84.8992	433.048	1	0	0	0		$|
3035745	0	object/static/structure/corellia/corl_power_arial_thin.iff	0	1269	84.8992	435.487	1	0	0	0		$|
3035746	0	object/static/structure/general/streetlamp_large_blue_style_01.iff	0	1269.78	89.6214	433.077	1	0	0	0		$|
3035747	0	object/static/installation/mockup_power_generator_wind_style_1.iff	0	1277.43	73	374.065	0.999687	0	0.0249974	0		$|
3035752	0	object/static/installation/mockup_mining_liquid_harvester_style_1.iff	0	1292.91	73	375.6	0.9998	0	-0.0199987	0		$|
3035753	0	object/static/installation/mockup_mining_gas_harvester_style_1.iff	0	1231.18	73	372.985	0.707107	0	-0.707106	0		$|
3035760	0	object/static/installation/mockup_power_generator_photo_bio_style_1.iff	0	1250.87	73	491.289	3.20E-08	0	1	0		$|
3035761	0	object/static/installation/mockup_power_generator_photo_bio_style_1.iff	0	1264.83	73	491.265	0	0	1	0		$|
3035762	0	object/static/structure/general/streetlamp_small_green_style_01.iff	0	1257.04	71.0919	485.599	1	0	0	0		$|
3035764	0	object/static/structure/general/streetlamp_medium_style_01.iff	0	1223.57	72.925	381.767	5.31E-08	0	1	0		$|
3035765	0	object/static/structure/general/streetlamp_small_style_01.iff	0	1281.52	71.0924	382.138	1	0	0	0		$|
3035767	0	object/static/structure/general/streetlamp_medium_style_01.iff	0	1309.78	72.9228	393.833	0.918474	0	-0.395482	0		$|
3035769	0	object/static/structure/tatooine/debris_tatt_crate_1.iff	0	1272.93	73	492.764	1	0	0	0		$|
3035770	0	object/static/structure/tatooine/debris_tatt_crate_metal_1.iff	0	1273.75	73	492.208	1	0	0	0		$|
3035771	0	object/static/structure/tatooine/debris_tatt_drum_dented_1.iff	0	1273.93	73	493.52	1	0	0	0		$|
3035772	0	object/static/structure/tatooine/debris_tatt_drum_storage_1.iff	0	1272.14	73	491.851	1	0	0	0		$|
3035773	0	object/static/structure/general/trash_pile_s01.iff	0	1236.66	73	489.202	1	0	0	0		$|
3035775	0	object/static/structure/tatooine/jawa/tent_jawa_01_med.iff	0	1209.64	72.9994	485.353	0.731689	0	-0.681638	0		$|
3035776	0	object/static/structure/tatooine/debris_tatt_crate_1.iff	0	1206.1	72.9694	484.819	1	0	0	0		$|
3035777	0	object/static/structure/tatooine/debris_tatt_crate_metal_1.iff	0	1207.26	72.9837	484.765	0.932327	0	-0.361615	0		$|
3035778	0	object/static/structure/tatooine/debris_tatt_drum_dented_1.iff	0	1206.72	72.9597	486.245	1	0	0	0		$|
3035782	0	object/static/item/item_container_energy_liquid.iff	0	1212.27	73	484.658	1	0	0	0		$|
3035783	0	object/static/item/item_container_energy_liquid.iff	0	1212.55	73	484.341	1	0	0	0		$|
3035784	0	object/static/item/item_container_energy_liquid.iff	0	1212.04	73	483.949	1	0	0	0		$|
3035786	0	object/static/item/item_container_energy_solid.iff	0	1211.01	72.9742	487.368	1	0	0	0		$|
3035787	0	object/static/item/item_container_energy_solid.iff	0	1211.29	72.9834	486.422	1	0	0	0		$|
3035788	0	object/static/item/item_container_inorganic_chemicals.iff	0	1212.84	73	483.215	1	0	0	0		$|
3035789	0	object/static/structure/tatooine/jawa/tent_jawa_01_small.iff	0	1204.6	73.0068	392.354	1	0	0	0		$|
3035790	0	object/static/item/item_crate_spice.iff	0	1205.56	73	390.621	1	0	0	0		$|
3035791	0	object/static/item/item_crate_spice.iff	0	1206.48	73	392.487	1	0	0	0		$|
3035792	0	object/static/item/item_container_organic_food.iff	0	1204.05	73.0004	393.21	1	0	0	0		$|
3035793	0	object/static/item/item_container_organic_food.iff	0	1204.79	73.0001	393.445	1	0	0	0		$|
3035794	0	object/static/item/item_container_organic_food.iff	0	1204.53	73.0002	392.959	1	0	0	0		$|
3035796	0	object/static/item/item_container_inorganic_minerals.iff	0	1203.08	73.0087	391.228	1	0	0	0		$|
3035797	0	object/static/item/item_container_energy_gas.iff	0	1277.44	73	383.054	1	0	0	0		$|
3035798	0	object/static/item/item_container_energy_liquid.iff	0	1277.13	73	384.827	1	0	0	0		$|
3035799	0	object/static/item/item_container_energy_liquid.iff	0	1277.39	73	385.096	1	0	0	0		$|
3035800	0	object/static/item/item_container_energy_liquid.iff	0	1277.48	73	384.736	1	0	0	0		$|
3035801	0	object/tangible/furniture/imperial/table_s1.iff	0	1315.62	79.9113	386.345	-0.405658	0	0.914025	0		$|
3035803	0	object/tangible/furniture/technical/armoire_s01.iff	0	1306.86	79.9113	389.046	0.367013	0	0.930216	0		$|
3035804	0	object/tangible/furniture/technical/bookcase_s01.iff	0	1307.03	79.9113	377.99	0.921061	0	0.389418	0		$|
3035805	0	object/static/structure/tatooine/debris_tatt_crate_1.iff	0	1317.4	73	413.175	0.930508	0	0.366273	0		$|
3035806	0	object/static/structure/tatooine/debris_tatt_crate_metal_1.iff	0	1317.43	73	412.2	1	0	0	0		$|
3035807	0	object/static/structure/tatooine/debris_tatt_drum_dented_1.iff	0	1318.51	73	413.908	1	0	0	0		$|
3035808	0	object/static/structure/tatooine/debris_tatt_drum_storage_1.iff	0	1317.44	73	414.454	1	0	0	0		$|
3035809	0	object/static/structure/tatooine/debris_tatt_drum_storage_2.iff	0	1319.65	73	413.242	0.802096	0	-0.597195	0		$|
3035810	0	object/static/structure/tatooine/debris_tatt_crate_1.iff	0	1318.49	73	412.198	1	0	0	0		$|
3035821	0	object/tangible/terminal/terminal_bazaar.iff	0	1274.57	73	402.481	0.707107	0	-0.707106	0		$|
3035822	0	object/tangible/terminal/terminal_bazaar.iff	0	1274.66	73	407.15	0.707107	0	-0.707106	0		$|
3035826	0	object/tangible/crafting/station/public_clothing_station.iff	0	1306.53	73	448.306	0.707107	0	-0.707106	0		$|
3035827	0	object/tangible/crafting/station/public_clothing_station.iff	0	1310.35	73	448.295	0.707107	0	-0.707106	0		$|
3035858	0	object/static/structure/tatooine/debris_tatt_crate_1.iff	0	1273.53	73	464.194	1	0	0	0		$|
3035859	0	object/static/structure/tatooine/debris_tatt_crate_metal_1.iff	0	1273.73	73	462.905	1	0	0	0		$|
3035860	0	object/static/structure/tatooine/debris_tatt_drum_dented_1.iff	0	1273.55	73	465.187	1	0	0	0		$|
3035861	0	object/static/structure/tatooine/debris_tatt_drum_storage_1.iff	0	1272.14	73	462.425	1	0	0	0		$|
3035862	0	object/static/structure/tatooine/debris_tatt_drum_storage_2.iff	0	1274.83	73	461.858	1	0	0	0		$|
3035863	0	object/static/item/item_container_inorganic_chemicals.iff	0	1270.39	73	461.022	1	0	0	0		$|
3035864	0	object/static/item/item_container_inorganic_gas.iff	0	1268.2	73	460.988	1	0	0	0		$|
3035865	0	object/static/item/item_container_inorganic_minerals.iff	0	1273.58	73	460.52	1	0	0	0		$|
4905354	0	object/static/item/item_crate_clothing_small.iff	0	1308.5	73	447.922	1	0	0	0		$|
4905355	0	object/static/item/item_sewing_utensils.iff	0	1308.54	73.8258	448.008	-0.640997	0.767543	0	0		$|
4905357	0	object/static/item/item_cloth_patches.iff	0	1308.07	73	447.64	1	0	0	0		$|
4905358	0	object/static/item/item_carbine_dh17.iff	0	1318.82	73.0648	434.782	0.693111	0	0	0.720831		$|
4905359	0	object/static/item/wp_mle_lance_staff_metal_s01.iff	0	1320.41	74.0436	435.02	0.982004	0	0	-0.188859		$|
4905360	0	object/static/item/wp_mle_lance_vibroaxe.iff	0	1320.46	73.9156	435.135	0.980067	0	0	-0.198669		$|
4905361	0	object/static/item/wp_rifle_laser_combined.iff	0	1319.04	73.0228	435.389	0.707388	0	0	0.706825		$|
8225359	0	object/static/structure/dathomir/nsister_fence_style_01.iff	0	636.571	30.391	226.34	0.758764	-0.065941	-0.64797	0.00793784		$|
8225369	0	object/static/flora/potted_plant_leaves_small.iff	0	637.475	30.714	226.969	-0.143704	0	0.989621	0		$|
8225370	0	object/static/flora/potted_plant_leaves_small.iff	0	636.727	30.7198	227.088	0.160104	0	0.9871	0		$|
8225371	0	object/static/flora/potted_plant_leaves_small.iff	0	636.172	30.7032	227.256	0.431177	0	0.902268	0		$|
8225372	0	object/static/flora/potted_plant_leaves_small.iff	0	635.423	30.709	227.375	0.682221	0	0.731146	0		$|
8225373	0	object/static/flora/potted_plant_leaves_small.iff	0	634.723	30.6749	227.371	-0.143704	0	0.989621	0		$|
8225374	0	object/static/flora/potted_plant_leaves_small.iff	0	633.974	30.6807	227.49	0.160104	0	0.9871	0		$|
8225375	0	object/static/flora/potted_plant_leaves_small.iff	0	638.994	30.6832	226.936	0.0807085	0	0.996738	0		$|
8225376	0	object/static/flora/potted_plant_leaves_small.iff	0	638.245	30.689	227.055	0.376297	0	0.926499	0		$|
8225377	0	object/static/flora/potted_plant_leaves_small.iff	0	640.55	30.7516	226.351	0.990901	0	0.13459	0		$|
8225378	0	object/static/flora/potted_plant_leaves_small.iff	0	639.862	30.7574	226.664	0.985585	0	-0.169182	0		$|
8225379	0	object/static/flora/potted_plant_leaves_small.iff	0	633.24	30.9203	227.941	0.987227	0	-0.159318	0		$|
8225380	0	object/static/flora/potted_plant_leaves_small.iff	0	632.493	30.9261	227.813	0.893822	0	-0.448423	0		$|
8375383	0	object/static/structure/dathomir/mtn_clan_pillar_s01.iff	0	1114	73.7306	189.974	1	0	0	0		$|
8375384	0	object/static/structure/dathomir/mtn_clan_pillar_s01.iff	0	1105.96	72.5415	182.305	0.707107	0	-0.707106	0		$|
8375385	0	object/static/structure/dathomir/mtn_clan_pillar_s01.iff	0	1120.55	74.5651	181.847	0.707107	0	0.707106	0		$|
8375386	0	object/static/structure/dathomir/mtn_clan_pillar_s01.iff	0	1114.16	73.896	175.417	3.20E-08	0	1	0		$|
8375387	0	object/static/structure/general/streetlamp_small_green_style_01.iff	0	1113.62	75.6953	181.868	1	0	0	0		$|
8375389	0	object/static/structure/general/debris_deathstar_turbolaser.iff	0	1261.25	65.2864	609.074	0.860303	-0.16584	-0.474536	-0.0848028		$|
8375406	0	object/static/structure/general/gravestone_generic_style_02.iff	0	1156.11	25.4228	1034.27	0.735088	0	-0.677972	0		$|
8375407	0	object/static/structure/general/gravestone_generic_style_03.iff	0	1155.94	25.4735	1032.37	0.716801	0	-0.697278	0		$|
8375416	0	object/static/flora/potted_plant_flowers_orange.iff	0	1155.01	24.9555	1034.28	1	0	0	0		$|
8375417	0	object/static/flora/potted_plant_flowers_purple.iff	0	1154.94	24.9619	1032.36	1	0	0	0		$|
8495465	0	object/static/structure/dantooine/dant_jedi_wall_1.iff	0	1923.09	208.354	893.241	0.975315	-0.0302489	0.0258729	0.217201		$|
8495466	0	object/static/structure/dantooine/dant_jedi_wall_2.iff	0	1922.87	207.748	881.417	0.962264	-0.00728889	-0.0464495	0.268024		$|
8695448	0	object/static/structure/dathomir/nsister_fence_style_01.iff	0	631.74	30.2811	230.861	0.998852	0.029176	-0.0147984	-0.0350008		$|
8695464	0	object/static/flora/flora_decd_scorched_tallbirch_broke.iff	0	1260.31	66.7463	610.058	0.898216	-0.00439455	-0.00898246	0.43944		$|
