template	command	hand
s	s	s
object/tangible/dance_prop/generic_must_prop_baton_01_l.iff	none	l
object/tangible/dance_prop/generic_must_prop_baton_01_r.iff	none	r
object/tangible/dance_prop/generic_must_prop_baton_02_l.iff	none	l
object/tangible/dance_prop/generic_must_prop_baton_02_r.iff	none	r
object/tangible/dance_prop/generic_must_prop_baton_03_l.iff	none	l
object/tangible/dance_prop/generic_must_prop_baton_03_r.iff	none	r
object/tangible/dance_prop/generic_must_prop_baton_04_l.iff	none	l
object/tangible/dance_prop/generic_must_prop_baton_04_r.iff	none	r
object/tangible/dance_prop/generic_prop_ribbon_spark_r.iff	none	r
object/tangible/dance_prop/generic_prop_sparkler_l.iff	none	l
object/tangible/dance_prop/generic_prop_sparkler_r.iff	none	r
object/tangible/dance_prop/prop_combat_fan_r.iff	prop_combat_fan	r
object/tangible/dance_prop/prop_combat_fan_l.iff	prop_combat_fan	l
object/tangible/dance_prop/prop_double_ribbon_l.iff	prop_double_ribbon	l
object/tangible/dance_prop/prop_double_ribbon_l_s02.iff	prop_double_ribbon	l
object/tangible/dance_prop/prop_double_ribbon_l_s03.iff	prop_double_ribbon	l
object/tangible/dance_prop/prop_double_ribbon_l_s04.iff	prop_double_ribbon	l
object/tangible/dance_prop/prop_double_ribbon_l_s05.iff	prop_double_ribbon	l
object/tangible/dance_prop/prop_double_ribbon_magic_l.iff	prop_double_ribbon_magic	l
object/tangible/dance_prop/prop_double_ribbon_magic_l_s02.iff	prop_double_ribbon_magic	l
object/tangible/dance_prop/prop_double_ribbon_magic_l_s03.iff	prop_double_ribbon_magic	l
object/tangible/dance_prop/prop_double_ribbon_magic_l_s04.iff	prop_double_ribbon_magic	l
object/tangible/dance_prop/prop_double_ribbon_magic_l_s05.iff	prop_double_ribbon_magic	l
object/tangible/dance_prop/prop_double_ribbon_magic_r.iff	prop_double_ribbon_magic	r
object/tangible/dance_prop/prop_double_ribbon_magic_r_s02.iff	prop_double_ribbon_magic	r
object/tangible/dance_prop/prop_double_ribbon_magic_r_s03.iff	prop_double_ribbon_magic	r
object/tangible/dance_prop/prop_double_ribbon_magic_r_s04.iff	prop_double_ribbon_magic	r
object/tangible/dance_prop/prop_double_ribbon_magic_r_s05.iff	prop_double_ribbon_magic	r
object/tangible/dance_prop/prop_double_ribbon_r.iff	prop_double_ribbon	r
object/tangible/dance_prop/prop_double_ribbon_r_s02.iff	prop_double_ribbon	r
object/tangible/dance_prop/prop_double_ribbon_r_s03.iff	prop_double_ribbon	r
object/tangible/dance_prop/prop_double_ribbon_r_s04.iff	prop_double_ribbon	r
object/tangible/dance_prop/prop_double_ribbon_r_s05.iff	prop_double_ribbon	r
object/tangible/dance_prop/prop_double_ribbon_spark_l.iff	prop_double_ribbon_spark	l
object/tangible/dance_prop/prop_double_ribbon_spark_l_s02.iff	prop_double_ribbon_spark	l
object/tangible/dance_prop/prop_double_ribbon_spark_l_s03.iff	prop_double_ribbon_spark	l
object/tangible/dance_prop/prop_double_ribbon_spark_l_s04.iff	prop_double_ribbon_spark	l
object/tangible/dance_prop/prop_double_ribbon_spark_l_s05.iff	prop_double_ribbon_spark	l
object/tangible/dance_prop/prop_double_ribbon_spark_r.iff	prop_double_ribbon_spark	r
object/tangible/dance_prop/prop_double_ribbon_spark_r_s02.iff	prop_double_ribbon_spark	r
object/tangible/dance_prop/prop_double_ribbon_spark_r_s03.iff	prop_double_ribbon_spark	r
object/tangible/dance_prop/prop_double_ribbon_spark_r_s04.iff	prop_double_ribbon_spark	r
object/tangible/dance_prop/prop_double_ribbon_spark_r_s05.iff	prop_double_ribbon_spark	r
object/tangible/dance_prop/prop_glowstick_l.iff	prop_glowstick	l
object/tangible/dance_prop/prop_glowstick_l_s02.iff	prop_glowstick	l
object/tangible/dance_prop/prop_glowstick_l_s03.iff	prop_glowstick	l
object/tangible/dance_prop/prop_glowstick_l_s04.iff	prop_glowstick	l
object/tangible/dance_prop/prop_glowstick_l_s05.iff	prop_glowstick	l
object/tangible/dance_prop/prop_glowstick_r.iff	prop_glowstick	r
object/tangible/dance_prop/prop_glowstick_r_s02.iff	prop_glowstick	r
object/tangible/dance_prop/prop_glowstick_r_s03.iff	prop_glowstick	r
object/tangible/dance_prop/prop_glowstick_r_s04.iff	prop_glowstick	r
object/tangible/dance_prop/prop_glowstick_r_s05.iff	prop_glowstick	r
object/tangible/dance_prop/prop_ribbon_l.iff	prop_ribbon	l
object/tangible/dance_prop/prop_ribbon_l_s02.iff	prop_ribbon	l
object/tangible/dance_prop/prop_ribbon_l_s03.iff	prop_ribbon	l
object/tangible/dance_prop/prop_ribbon_l_s04.iff	prop_ribbon	l
object/tangible/dance_prop/prop_ribbon_l_s05.iff	prop_ribbon	l
object/tangible/dance_prop/prop_ribbon_l_s06.iff	prop_ribbon	l
object/tangible/dance_prop/prop_ribbon_l_s07.iff	prop_ribbon	l
object/tangible/dance_prop/prop_ribbon_l_s08.iff	prop_ribbon	l
object/tangible/dance_prop/prop_ribbon_magic_l.iff	prop_ribbon_magic	l
object/tangible/dance_prop/prop_ribbon_magic_l_s02.iff	prop_ribbon_magic	l
object/tangible/dance_prop/prop_ribbon_magic_l_s03.iff	prop_ribbon_magic	l
object/tangible/dance_prop/prop_ribbon_magic_l_s04.iff	prop_ribbon_magic	l
object/tangible/dance_prop/prop_ribbon_magic_l_s05.iff	prop_ribbon_magic	l
object/tangible/dance_prop/prop_ribbon_magic_r.iff	prop_ribbon_magic	r
object/tangible/dance_prop/prop_ribbon_magic_r_s02.iff	prop_ribbon_magic	r
object/tangible/dance_prop/prop_ribbon_magic_r_s03.iff	prop_ribbon_magic	r
object/tangible/dance_prop/prop_ribbon_magic_r_s04.iff	prop_ribbon_magic	r
object/tangible/dance_prop/prop_ribbon_magic_r_s05.iff	prop_ribbon_magic	r
object/tangible/dance_prop/prop_ribbon_r.iff	prop_ribbon	r
object/tangible/dance_prop/prop_ribbon_r_s02.iff	prop_ribbon	r
object/tangible/dance_prop/prop_ribbon_r_s03.iff	prop_ribbon	r
object/tangible/dance_prop/prop_ribbon_r_s04.iff	prop_ribbon	r
object/tangible/dance_prop/prop_ribbon_r_s05.iff	prop_ribbon	r
object/tangible/dance_prop/prop_ribbon_r_s06.iff	prop_ribbon	r
object/tangible/dance_prop/prop_ribbon_r_s07.iff	prop_ribbon	r
object/tangible/dance_prop/prop_ribbon_r_s08.iff	prop_ribbon	r
object/tangible/dance_prop/prop_ribbon_spark_l.iff	prop_ribbon_spark	l
object/tangible/dance_prop/prop_ribbon_spark_l_s02.iff	prop_ribbon_spark	l
object/tangible/dance_prop/prop_ribbon_spark_l_s03.iff	prop_ribbon_spark	l
object/tangible/dance_prop/prop_ribbon_spark_l_s04.iff	prop_ribbon_spark	l
object/tangible/dance_prop/prop_ribbon_spark_l_s05.iff	prop_ribbon_spark	l
object/tangible/dance_prop/prop_ribbon_spark_r.iff	prop_ribbon_spark	r
object/tangible/dance_prop/prop_ribbon_spark_r_s02.iff	prop_ribbon_spark	r
object/tangible/dance_prop/prop_ribbon_spark_r_s03.iff	prop_ribbon_spark	r
object/tangible/dance_prop/prop_ribbon_spark_r_s04.iff	prop_ribbon_spark	r
object/tangible/dance_prop/prop_ribbon_spark_r_s05.iff	prop_ribbon_spark	r
object/tangible/dance_prop/prop_sparkler_l.iff	prop_sparkler	l
object/tangible/dance_prop/prop_sparkler_l_s02.iff	prop_sparkler	l
object/tangible/dance_prop/prop_sparkler_l_s03.iff	prop_sparkler	l
object/tangible/dance_prop/prop_sparkler_l_s04.iff	prop_sparkler	l
object/tangible/dance_prop/prop_sparkler_l_s05.iff	prop_sparkler	l
object/tangible/dance_prop/prop_sparkler_r.iff	prop_sparkler	r
object/tangible/dance_prop/prop_sparkler_r_s02.iff	prop_sparkler	r
object/tangible/dance_prop/prop_sparkler_r_s03.iff	prop_sparkler	r
object/tangible/dance_prop/prop_sparkler_r_s04.iff	prop_sparkler	r
object/tangible/dance_prop/prop_sparkler_r_s05.iff	prop_sparkler	r
object/tangible/dance_prop/prop_staff_l.iff	prop_staff	l
object/tangible/dance_prop/prop_staff_l_hue.iff	prop_staff	l
object/tangible/dance_prop/prop_staff_r.iff	prop_staff	r
object/tangible/dance_prop/prop_staff_r_hue.iff	prop_staff	r
object/tangible/dance_prop/prop_sword_l.iff	prop_sword	l
object/tangible/dance_prop/prop_sword_r.iff	prop_sword	r
object/tangible/dance_prop/prop_torch_l.iff	prop_torch	l
object/tangible/dance_prop/prop_torch_r.iff	prop_torch	r
object/tangible/dance_prop/prop_ewok_flowers.iff	none	r
object/tangible/collection/reward/col_reward_feather_duster.iff	none	l
object/tangible/holiday/love_day/love_day_prop_2009_flowers_reward.iff	none	r
object/tangible/dance_prop/prop_gcw_imp_glowstick_l.iff	prop_glowstick	l
object/tangible/dance_prop/prop_gcw_imp_glowstick_r.iff	prop_glowstick	r
object/tangible/dance_prop/prop_gcw_reb_glowstick_l.iff	prop_glowstick	l
object/tangible/dance_prop/prop_gcw_reb_glowstick_r.iff	prop_glowstick	r
object/tangible/holiday/love_day/rewards_10/love_day_prop_2010_flowers.iff	none	r
